\contentsline {section}{\numberline {1}Introduction}{5}{section.1}
\contentsline {section}{\numberline {2}Software}{6}{section.2}
\contentsline {section}{\numberline {3}Tests}{7}{section.3}
\contentsline {subsection}{\numberline {3.1}Testing functions}{7}{subsection.3.1}
\contentsline {subsection}{\numberline {3.2}Results}{8}{subsection.3.2}
\contentsline {subsection}{\numberline {3.3}Summary and coments}{12}{subsection.3.3}
\contentsline {section}{References}{12}{section*.15}
