\relax 
\providecommand\hyper@newdestlabel[2]{}
\providecommand\HyperFirstAtBeginDocument{\AtBeginDocument}
\HyperFirstAtBeginDocument{\ifx\hyper@anchor\@undefined
\global\let\oldcontentsline\contentsline
\gdef\contentsline#1#2#3#4{\oldcontentsline{#1}{#2}{#3}}
\global\let\oldnewlabel\newlabel
\gdef\newlabel#1#2{\newlabelxx{#1}#2}
\gdef\newlabelxx#1#2#3#4#5#6{\oldnewlabel{#1}{{#2}{#3}}}
\AtEndDocument{\ifx\hyper@anchor\@undefined
\let\contentsline\oldcontentsline
\let\newlabel\oldnewlabel
\fi}
\fi}
\global\let\hyper@last\relax 
\gdef\HyperFirstAtBeginDocument#1{#1}
\providecommand\HyField@AuxAddToFields[1]{}
\providecommand\HyField@AuxAddToCoFields[2]{}
\citation{Amrein2014}
\citation{Janiak2015}
\@writefile{toc}{\contentsline {section}{\numberline {1}Introduction}{5}{section.1}}
\newlabel{eq:Newton}{{1}{5}{Introduction}{equation.1.1}{}}
\@writefile{loa}{\contentsline {algocf}{\numberline {1}{\ignorespaces Newton's algorithm\relax }}{6}{algocf.1}}
\@writefile{toc}{\contentsline {section}{\numberline {2}Software}{6}{section.2}}
\@writefile{lof}{\contentsline {figure}{\numberline {1}{\ignorespaces Aplication with GUI\relax }}{7}{figure.caption.2}}
\providecommand*\caption@xref[2]{\@setref\relax\@undefined{#1}}
\newlabel{fig:gcalosc}{{1}{7}{Aplication with GUI\relax }{figure.caption.2}{}}
\@writefile{toc}{\contentsline {section}{\numberline {3}Tests}{7}{section.3}}
\@writefile{toc}{\contentsline {subsection}{\numberline {3.1}Testing functions}{7}{subsection.3.1}}
\@writefile{toc}{\contentsline {subsection}{\numberline {3.2}Results}{8}{subsection.3.2}}
\@writefile{lot}{\contentsline {table}{\numberline {1}{\ignorespaces Test results for function $x^4 + y^4 - x^2 - y^2$ \relax }}{8}{table.caption.3}}
\newlabel{my-label}{{1}{8}{Test results for function $x^4 + y^4 - x^2 - y^2$ \relax }{table.caption.3}{}}
\@writefile{lof}{\contentsline {figure}{\numberline {2}{\ignorespaces Visualization of finding minimum for start point [1,1]\relax }}{8}{figure.caption.4}}
\newlabel{fig:gcalosc}{{2}{8}{Visualization of finding minimum for start point [1,1]\relax }{figure.caption.4}{}}
\@writefile{lof}{\contentsline {figure}{\numberline {3}{\ignorespaces Visualization of finding minimum for start point [-1.2,0.8]\relax }}{8}{figure.caption.5}}
\newlabel{fig:gcalosc}{{3}{8}{Visualization of finding minimum for start point [-1.2,0.8]\relax }{figure.caption.5}{}}
\@writefile{lot}{\contentsline {table}{\numberline {2}{\ignorespaces Test results for function $100 \cdot ( x - y^2 )^2 + ( 1 - x )^2$ \relax }}{9}{table.caption.6}}
\newlabel{my-label}{{2}{9}{Test results for function $100 \cdot ( x - y^2 )^2 + ( 1 - x )^2$ \relax }{table.caption.6}{}}
\@writefile{lof}{\contentsline {figure}{\numberline {4}{\ignorespaces Visualization of finding minimum for start point [-3,-1.9]\relax }}{9}{figure.caption.7}}
\newlabel{fig:gcalosc}{{4}{9}{Visualization of finding minimum for start point [-3,-1.9]\relax }{figure.caption.7}{}}
\@writefile{lof}{\contentsline {figure}{\numberline {5}{\ignorespaces Visualization of finding minimum for start point [2,-1.4]\relax }}{9}{figure.caption.8}}
\newlabel{fig:gcalosc}{{5}{9}{Visualization of finding minimum for start point [2,-1.4]\relax }{figure.caption.8}{}}
\@writefile{lot}{\contentsline {table}{\numberline {3}{\ignorespaces Test results for function $(x^2 +y-11)^2 + (x+y^2-7)^2 -200$ \relax }}{10}{table.caption.9}}
\newlabel{my-label}{{3}{10}{Test results for function $(x^2 +y-11)^2 + (x+y^2-7)^2 -200$ \relax }{table.caption.9}{}}
\@writefile{lof}{\contentsline {figure}{\numberline {6}{\ignorespaces Visualization of finding minimum for start point [-3,-2]\relax }}{10}{figure.caption.10}}
\newlabel{fig:gcalosc}{{6}{10}{Visualization of finding minimum for start point [-3,-2]\relax }{figure.caption.10}{}}
\@writefile{lof}{\contentsline {figure}{\numberline {7}{\ignorespaces Visualization of finding minimum for start point [-3,1]\relax }}{10}{figure.caption.11}}
\newlabel{fig:gcalosc}{{7}{10}{Visualization of finding minimum for start point [-3,1]\relax }{figure.caption.11}{}}
\@writefile{lot}{\contentsline {table}{\numberline {4}{\ignorespaces Test results for function $x^2 - cos(18 \cdot x) + y^2 - cos(18 \cdot y)$ \relax }}{11}{table.caption.12}}
\newlabel{my-label}{{4}{11}{Test results for function $x^2 - cos(18 \cdot x) + y^2 - cos(18 \cdot y)$ \relax }{table.caption.12}{}}
\@writefile{lof}{\contentsline {figure}{\numberline {8}{\ignorespaces Visualization of finding minimum for start point [-0.4,0.6]\relax }}{11}{figure.caption.13}}
\newlabel{fig:gcalosc}{{8}{11}{Visualization of finding minimum for start point [-0.4,0.6]\relax }{figure.caption.13}{}}
\@writefile{lof}{\contentsline {figure}{\numberline {9}{\ignorespaces Visualization of finding minimum for start point [-0.6,0.2]\relax }}{11}{figure.caption.14}}
\newlabel{fig:gcalosc}{{9}{11}{Visualization of finding minimum for start point [-0.6,0.2]\relax }{figure.caption.14}{}}
\citation{*}
\bibstyle{abbrv}
\bibdata{bibliography/biblio}
\bibcite{Amrein2014}{1}
\bibcite{Janiak2015}{2}
\@writefile{toc}{\contentsline {subsection}{\numberline {3.3}Summary and coments}{12}{subsection.3.3}}
\@writefile{toc}{\contentsline {section}{References}{12}{section*.15}}
